^C:\R\OPENGL\WINDOWS\FIXEDFUNCTIONPIPELINE\GRAPHASSIGNMENTS\6_GRAPHPAPER\X64\DEBUG\GRAPHPAPER.OBJ|C:\R\X64\DEBUG\UTILITY.LIB
C:\R\X64\DEBUG\6_GRAPHPAPER.ILK
C:\R\X64\DEBUG\6_GRAPHPAPER.EXE
C:\R\X64\DEBUG\6_GRAPHPAPER.PDB
