* In Sphere.java :
==================
01) Put This File In ‘<your_project_dir>/app/src/main/java/<innermost_reverse_domain_name_directory>’
    Along With Other Java Source Code Files.

02) Open It And At The Top Of Sphere.java, Write Package Name As Necessary.

* In GLESView.java :
====================
01) At The Top, Along With Other ‘import’ Statements, 
    Import ‘java.nio.ShortBuffer’.

02) In class GLESView.java, Declare Following As ‘Fields’ :

    private int[] vao_sphere = new int[1];
    private int[] vbo_sphere_position = new int[1];
    private int[] vbo_sphere_normal = new int[1];
    private int[] vbo_sphere_element = new int[1];

03) In initialize(), At Proper Location :

        Sphere sphere=new Sphere();
        float sphere_vertices[]=new float[1146];
        float sphere_normals[]=new float[1146];
        float sphere_textures[]=new float[764];
        short sphere_elements[]=new short[2280];
        sphere.getSphereVertexData(sphere_vertices, sphere_normals, sphere_textures, sphere_elements);
        numVertices = sphere.getNumberOfSphereVertices();
        numElements = sphere.getNumberOfSphereElements();

        // vao
        GLES32.glGenVertexArrays(1,vao_sphere,0);
        GLES32.glBindVertexArray(vao_sphere[0]);
        
        // position vbo
        GLES32.glGenBuffers(1,vbo_sphere_position,0);
        GLES32.glBindBuffer(GLES32.GL_ARRAY_BUFFER,vbo_sphere_position[0]);
        
        ByteBuffer byteBuffer=ByteBuffer.allocateDirect(sphere_vertices.length * 4);
        byteBuffer.order(ByteOrder.nativeOrder());
        FloatBuffer verticesBuffer=byteBuffer.asFloatBuffer();
        verticesBuffer.put(sphere_vertices);
        verticesBuffer.position(0);
        
        GLES32.glBufferData(GLES32.GL_ARRAY_BUFFER,
                            sphere_vertices.length * 4,
                            verticesBuffer,
                            GLES32.GL_STATIC_DRAW);
        
        GLES32.glVertexAttribPointer(GLESMacros.VDG_ATTRIBUTE_VERTEX,
                                     3,
                                     GLES32.GL_FLOAT,
                                     false,0,0);
        
        GLES32.glEnableVertexAttribArray(GLESMacros.VDG_ATTRIBUTE_VERTEX);
        
        GLES32.glBindBuffer(GLES32.GL_ARRAY_BUFFER,0);
        
        // normal vbo
        GLES32.glGenBuffers(1,vbo_sphere_normal,0);
        GLES32.glBindBuffer(GLES32.GL_ARRAY_BUFFER,vbo_sphere_normal[0]);
        
        byteBuffer=ByteBuffer.allocateDirect(sphere_normals.length * 4);
        byteBuffer.order(ByteOrder.nativeOrder());
        verticesBuffer=byteBuffer.asFloatBuffer();
        verticesBuffer.put(sphere_normals);
        verticesBuffer.position(0);
        
        GLES32.glBufferData(GLES32.GL_ARRAY_BUFFER,
                            sphere_normals.length * 4,
                            verticesBuffer,
                            GLES32.GL_STATIC_DRAW);
        
        GLES32.glVertexAttribPointer(GLESMacros.VDG_ATTRIBUTE_NORMAL,
                                     3,
                                     GLES32.GL_FLOAT,
                                     false,0,0);
        
        GLES32.glEnableVertexAttribArray(GLESMacros.VDG_ATTRIBUTE_NORMAL);
        
        GLES32.glBindBuffer(GLES32.GL_ARRAY_BUFFER,0);
        
        // element vbo
        GLES32.glGenBuffers(1,vbo_sphere_element,0);
        GLES32.glBindBuffer(GLES32.GL_ELEMENT_ARRAY_BUFFER,vbo_sphere_element[0]);
        
        byteBuffer=ByteBuffer.allocateDirect(sphere_elements.length * 2);
        byteBuffer.order(ByteOrder.nativeOrder());
        ShortBuffer elementsBuffer=byteBuffer.asShortBuffer();
        elementsBuffer.put(sphere_elements);
        elementsBuffer.position(0);
        
        GLES32.glBufferData(GLES32.GL_ELEMENT_ARRAY_BUFFER,
                            sphere_elements.length * 2,
                            elementsBuffer,
                            GLES32.GL_STATIC_DRAW);
        
        GLES32.glBindBuffer(GLES32.GL_ELEMENT_ARRAY_BUFFER,0);

        GLES32.glBindVertexArray(0);

04) In display(), Ensuring You Had Already Done glUseProgram() And Matrices Related Work :

        // bind vao
        GLES32.glBindVertexArray(vao_sphere[0]);
        
        // *** draw, either by glDrawTriangles() or glDrawArrays() or glDrawElements()
        GLES32.glBindBuffer(GLES32.GL_ELEMENT_ARRAY_BUFFER, vbo_sphere_element[0]);
        GLES32.glDrawElements(GLES32.GL_TRIANGLES, numElements, GLES32.GL_UNSIGNED_SHORT, 0);
        
        // unbind vao
        GLES32.glBindVertexArray(0);

05) In uninitialize() :

        // destroy vao
        if(vao_sphere[0] != 0)
        {
            GLES32.glDeleteVertexArrays(1, vao_sphere, 0);
            vao_sphere[0]=0;
        }
        
        // destroy position vbo
        if(vbo_sphere_position[0] != 0)
        {
            GLES32.glDeleteBuffers(1, vbo_sphere_position, 0);
            vbo_sphere_position[0]=0;
        }
        
        // destroy normal vbo
        if(vbo_sphere_normal[0] != 0)
        {
            GLES32.glDeleteBuffers(1, vbo_sphere_normal, 0);
            vbo_sphere_normal[0]=0;
        }
        
        // destroy element vbo
        if(vbo_sphere_element[0] != 0)
        {
            GLES32.glDeleteBuffers(1, vbo_sphere_element, 0);
            vbo_sphere_element[0]=0;
        }
