^C:\USERS\SAHILS\DOCUMENTS\VISUAL STUDIO 2017\PROJECTS\RTR2018BATCH_GOKHALESIR_PUNE\OPENGL\WINDOWS\FIXEDFUNCTIONPIPELINE\3_SINGLEBUFFER\X64\DEBUG\OPENGLINITIALIZE.OBJ
C:\USERS\SAHILS\DOCUMENTS\VISUAL STUDIO 2017\PROJECTS\RTR2018BATCH_GOKHALESIR_PUNE\X64\DEBUG\3_SINGLEBUFFER.EXE
C:\USERS\SAHILS\DOCUMENTS\VISUAL STUDIO 2017\PROJECTS\RTR2018BATCH_GOKHALESIR_PUNE\X64\DEBUG\3_SINGLEBUFFER.ILK
C:\USERS\SAHILS\DOCUMENTS\VISUAL STUDIO 2017\PROJECTS\RTR2018BATCH_GOKHALESIR_PUNE\X64\DEBUG\3_SINGLEBUFFER.PDB
