^C:\R\OPENGL\WINDOWS\FIXEDFUNCTIONPIPELINE\19_DEATHLYHALLOWSANIMATE\DEATHLYHALLOWSANIMATE.CPP
C:\R\OPENGL\WINDOWS\FIXEDFUNCTIONPIPELINE\19_DEATHLYHALLOWSANIMATE\X64\DEBUG\VC141.PDB
C:\R\OPENGL\WINDOWS\FIXEDFUNCTIONPIPELINE\19_DEATHLYHALLOWSANIMATE\X64\DEBUG\VC141.IDB
C:\R\OPENGL\WINDOWS\FIXEDFUNCTIONPIPELINE\19_DEATHLYHALLOWSANIMATE\X64\DEBUG\DEATHLYHALLOWSANIMATE.OBJ
