^C:\R\OPENGL\WINDOWS\FIXEDFUNCTIONPIPELINE\GRAPHASSIGNMENTS\7_TRIANGLEONGRAPH\TRIANGLEONGRAPH.CPP
C:\R\OPENGL\WINDOWS\FIXEDFUNCTIONPIPELINE\GRAPHASSIGNMENTS\7_TRIANGLEONGRAPH\X64\DEBUG\VC141.PDB
C:\R\OPENGL\WINDOWS\FIXEDFUNCTIONPIPELINE\GRAPHASSIGNMENTS\7_TRIANGLEONGRAPH\X64\DEBUG\VC141.IDB
C:\R\OPENGL\WINDOWS\FIXEDFUNCTIONPIPELINE\GRAPHASSIGNMENTS\7_TRIANGLEONGRAPH\X64\DEBUG\TRIANGLEONGRAPH.OBJ
