^C:\USERS\SAHILS\DOCUMENTS\VISUAL STUDIO 2017\PROJECTS\RTR2018BATCH_GOKHALESIR_PUNE\OPENGL\WINDOWS\FIXEDFUNCTIONPIPELINE\34_CUBE_LIGHT\X64\DEBUG\CUBELIGHT.OBJ|C:\USERS\SAHILS\DOCUMENTS\VISUAL STUDIO 2017\PROJECTS\RTR2018BATCH_GOKHALESIR_PUNE\X64\DEBUG\UTILITY.LIB
C:\USERS\SAHILS\DOCUMENTS\VISUAL STUDIO 2017\PROJECTS\RTR2018BATCH_GOKHALESIR_PUNE\X64\DEBUG\34_CUBE_LIGHT.EXE
C:\USERS\SAHILS\DOCUMENTS\VISUAL STUDIO 2017\PROJECTS\RTR2018BATCH_GOKHALESIR_PUNE\X64\DEBUG\34_CUBE_LIGHT.ILK
C:\USERS\SAHILS\DOCUMENTS\VISUAL STUDIO 2017\PROJECTS\RTR2018BATCH_GOKHALESIR_PUNE\X64\DEBUG\34_CUBE_LIGHT.PDB
