^C:\R\MYPROJECTS\OPENGL\WINDOWS\03_BEZIERCURVE\X64\DEBUG\BEZIERCURVE.OBJ|C:\R\X64\DEBUG\UTILITY.LIB
C:\R\X64\DEBUG\03_BEZIERCURVE.ILK
C:\R\X64\DEBUG\03_BEZIERCURVE.EXE
C:\R\X64\DEBUG\03_BEZIERCURVE.PDB
