<?xml version="1.0" encoding="UTF-8" standalone="no"?>
<!-- Created with Inkscape (http://www.inkscape.org/) -->

<svg
   xmlns:dc="http://purl.org/dc/elements/1.1/"
   xmlns:cc="http://creativecommons.org/ns#"
   xmlns:rdf="http://www.w3.org/1999/02/22-rdf-syntax-ns#"
   xmlns:svg="http://www.w3.org/2000/svg"
   xmlns="http://www.w3.org/2000/svg"
   xmlns:xlink="http://www.w3.org/1999/xlink"
   xmlns:sodipodi="http://sodipodi.sourceforge.net/DTD/sodipodi-0.dtd"
   xmlns:inkscape="http://www.inkscape.org/namespaces/inkscape"
   width="446"
   height="305"
   viewBox="0 0 118.00417 80.697919"
   version="1.1"
   id="svg852"
   inkscape:version="0.92.3 (2405546, 2018-03-11)"
   sodipodi:docname="speechBubbleLeft.svg">
  <defs
     id="defs846">
    <radialGradient
       inkscape:collect="always"
       xlink:href="#linearGradient859"
       id="radialGradient927"
       cx="44.215672"
       cy="122.77887"
       fx="44.215672"
       fy="122.77887"
       r="25.742653"
       gradientTransform="matrix(1,0,0,0.73416166,11.29648,27.753205)"
       gradientUnits="userSpaceOnUse" />
    <linearGradient
       inkscape:collect="always"
       id="linearGradient859">
      <stop
         style="stop-color:#000000;stop-opacity:1;"
         offset="0"
         id="stop855" />
      <stop
         style="stop-color:#000000;stop-opacity:0;"
         offset="1"
         id="stop857" />
    </linearGradient>
  </defs>
  <sodipodi:namedview
     id="base"
     pagecolor="#ffffff"
     bordercolor="#666666"
     borderopacity="1.0"
     inkscape:pageopacity="0.0"
     inkscape:pageshadow="2"
     inkscape:zoom="2.6491803"
     inkscape:cx="223"
     inkscape:cy="152.5"
     inkscape:document-units="px"
     inkscape:current-layer="layer1"
     showgrid="false"
     units="px"
     inkscape:window-width="1920"
     inkscape:window-height="1001"
     inkscape:window-x="-9"
     inkscape:window-y="-9"
     inkscape:window-maximized="1" />
  <metadata
     id="metadata849">
    <rdf:RDF>
      <cc:Work
         rdf:about="">
        <dc:format>image/svg+xml</dc:format>
        <dc:type
           rdf:resource="http://purl.org/dc/dcmitype/StillImage" />
        <dc:title></dc:title>
      </cc:Work>
    </rdf:RDF>
  </metadata>
  <g
     inkscape:label="Layer 1"
     inkscape:groupmode="layer"
     id="layer1"
     transform="translate(0,-216.30206)">
    <g
       id="g1465"
       inkscape:export-xdpi="192.213"
       inkscape:export-ydpi="192.213">
      <g
         id="g844"
         transform="translate(4.7245175,141.00024)">
        <path
           id="path919"
           d="m 38.503592,101.33271 a 8.7341927,8.7341927 0 0 0 -8.734093,8.73409 8.7341927,8.7341927 0 0 0 3.51585,6.99058 6.3043798,7.0267566 0 0 0 -0.49531,2.72846 6.3043798,7.0267566 0 0 0 6.304333,7.02698 6.3043798,7.0267566 0 0 0 3.10514,-0.92115 9.3252284,5.7790149 0 0 0 4.796189,1.59511 c -1.251623,2.21071 -4.172694,4.51068 -6.330326,6.96601 3.755057,-2.51018 7.043418,-3.57547 9.391987,-6.91071 a 9.3252284,5.7790149 0 0 0 5.346324,-1.6367 8.5371811,6.5013924 0 0 0 7.594595,3.53428 8.5371811,6.5013924 0 0 0 8.537482,-6.50142 8.5371811,6.5013924 0 0 0 -0.01371,-0.29397 8.5371811,8.7341927 0 0 0 1.19574,0.0969 8.5371811,8.7341927 0 0 0 8.53701,-8.73409 8.5371811,8.7341927 0 0 0 -8.53701,-8.7341 8.5371811,8.7341927 0 0 0 -6.404056,2.96903 14.053513,9.8505918 0 0 0 -12.419617,-5.25416 14.053513,9.8505918 0 0 0 -8.343234,1.93775 8.7341927,8.7341927 0 0 0 -7.047298,-3.59288 z"
           style="opacity:1;vector-effect:none;fill:url(#radialGradient927);fill-opacity:1;fill-rule:nonzero;stroke:none;stroke-width:0.37816253;stroke-linecap:butt;stroke-linejoin:miter;stroke-miterlimit:4;stroke-dasharray:none;stroke-dashoffset:0;stroke-opacity:1"
           inkscape:connector-curvature="0" />
        <path
           inkscape:connector-curvature="0"
           style="opacity:1;vector-effect:none;fill:#fff9a5;fill-opacity:1;fill-rule:nonzero;stroke:none;stroke-width:0.41348058;stroke-linecap:butt;stroke-linejoin:miter;stroke-miterlimit:4;stroke-dasharray:none;stroke-dashoffset:0;stroke-opacity:1"
           d="m 35.680503,96.848768 a 9.549913,9.549913 0 0 0 -9.549804,9.549802 9.549913,9.549913 0 0 0 3.844209,7.64346 6.8931704,7.6830128 0 0 0 -0.541569,2.98328 6.8931704,7.6830128 0 0 0 6.89312,7.68325 6.8931704,7.6830128 0 0 0 3.395141,-1.00717 10.196148,6.3187397 0 0 0 5.244123,1.74408 c -1.368517,2.41717 -4.562398,4.93195 -6.921539,7.61659 4.105756,-2.74461 7.701229,-3.9094 10.26914,-7.55613 a 10.196148,6.3187397 0 0 0 5.845638,-1.78955 9.3345017,7.1085828 0 0 0 8.303884,3.86436 9.3345017,7.1085828 0 0 0 9.334831,-7.10861 9.3345017,7.1085828 0 0 0 -0.01497,-0.32143 9.3345017,9.549913 0 0 0 1.307414,0.10594 9.3345017,9.549913 0 0 0 9.334315,-9.5498 9.3345017,9.549913 0 0 0 -9.334315,-9.54981 9.3345017,9.549913 0 0 0 -7.002155,3.24631 15.366026,10.770577 0 0 0 -13.579533,-5.744865 15.366026,10.770577 0 0 0 -9.122442,2.118735 9.549913,9.549913 0 0 0 -7.705472,-3.928442 z"
           id="path905" />
      </g>
      <rect
         rx="2.8537082e-015"
         y="237.09949"
         x="29.660355"
         height="39.103065"
         width="58.68346"
         id="rect1433"
         style="opacity:1;vector-effect:none;fill:none;fill-opacity:1;fill-rule:nonzero;stroke:none;stroke-width:0.26217231;stroke-linecap:butt;stroke-linejoin:miter;stroke-miterlimit:4;stroke-dasharray:none;stroke-dashoffset:0;stroke-opacity:1" />
    </g>
  </g>
</svg>
