^C:\R\OPENGL\WINDOWS\FIXEDFUNCTIONPIPELINE\21_INDIA_DYNAMIC\X64\DEBUG\DYNAMICINDIA.OBJ|C:\R\OPENGL\WINDOWS\FIXEDFUNCTIONPIPELINE\21_INDIA_DYNAMIC\X64\DEBUG\RESOURCE.RES|C:\R\X64\DEBUG\UTILITY.LIB
C:\R\X64\DEBUG\21_INDIA_DYNAMIC.ILK
C:\R\X64\DEBUG\21_INDIA_DYNAMIC.EXE
C:\R\X64\DEBUG\21_INDIA_DYNAMIC.PDB
